{
    "$schema": "http://schema.angular.io/schematics/collection/2",
    "extends": [
      "@schematics/angular",
      "@ockilson/ng-jest"
    ],
    "schematics": {
      "package": {
        "description": "Create a new node package, external to the angular app",
        "factory": "./packages/index#lernaPackage",
        "schema": "./packages/schema.json"
      }
    }
  }
  